;originally from Per Olofsson's IP65 library - http://www.paradroid.net/ip65

pp_rx_ctl	    = $0104
pp_line_ctl	    = $0112
pp_self_ctl	    = $0114
pp_bus_status	= $0138
pp_ia		    = $0158






;-- LICENSE FOR cs8900a.i --
; The contents of this file are subject to the Mozilla Public License
; Version 1.1 (the "License"); you may not use this file except in
; compliance with the License. You may obtain a copy of the License at
; http://www.mozilla.org/MPL/
; 
; Software distributed under the License is distributed on an "AS IS"
; basis, WITHOUT WARRANTY OF ANY KIND, either express or implied. See the
; License for the specific language governing rights and limitations
; under the License.
; 
; The Original Code is ip65.
; 
; The Initial Developer of the Original Code is Jonno Downes,
; jonno@jamtronix.com.
; Portions created by the Initial Developer are Copyright (C) 2009
; Jonno Downes. All Rights Reserved.  
; -- LICENSE END --
